…
Celegans.PhyloMap.wormbase <-
  phylomapr::convertID(
    phylomap = Celegans.PhyloMap,
    mart = "ENSEMBL_MART_ENSEMBL",
    dataset = "celegans_gene_ensembl",
    attributes = c("wormbase_cds"),
    filters    = "uniprot_gn_id")
```

```r
> Celegans.PhyloMap
# A tibble: 19,818 × 2
   Phylostratum GeneID                   
          <dbl> <chr>                    
 1            2 sp|A0A061ACU2|PIEZ1_CAEEL
 2            3 sp|A0A078BQN7|FKH3_CAEEL 
 3            1 sp|A0A078BQP2|GCY25_CAEEL
 4           10 sp|A0A0K3AUE4|SEA2_CAEEL 
 5            1 sp|A0A0K3AUJ9|PRDX_CAEEL 
 6            1 sp|A0A0K3AV08|MLK1_CAEEL 
 7            1 sp|A0A0K3AWM6|MOM5_CAEEL 
 8            3 sp|A0A0K3AXH1|ARID1_CAEEL
 9            1 sp|A0A131MBU3|IRG7_CAEEL 
10            1 sp|A0A131MCZ8|CNNM3_CAEEL
# ℹ 19,808 more rows
# ℹ Use `print(n = ...)` to see more rows
```

```r
> Celegans.PhyloMap.wormbase
# A tibble: 16,319 × 2
   Phylostratum GeneID  
          <dbl> <chr>   
 1            2 2RSSE.1a
 2            2 2RSSE.1b
 3            2 2RSSE.1c
 4           14 3R5.1a  
 5           14 3R5.1b  
 6            1 4R79.1a 
 7            1 4R79.1b 
 8            1 AC3.10  
 9           11 AC3.1a  
10           11 AC3.1b  
# ℹ 16,309 more rows
# ℹ Use `print(n = ...)` to see more rows
```
…
