Adding phylomaps to phylomapr • phylomapr
…
The most important thing is that the [Species].PhyloMap
object has the first column with phylostratum titled
Phylostratum and the second column with the GeneID titled
GeneID.

> phylomapr::Rhizophagus_irregularis.PhyloMap
# A tibble: 31,217 × 2
   Phylostratum GeneID   
          <dbl> <chr>    
 1            8 g100-T1  
 2            6 g1000-T1 
 3            2 g10000-T1
 4            9 g10001-T1
 5            1 g10002-T1
 6            1 g10003-T1
 7            1 g10004-T1
 8            1 g10005-T1
 9            1 g10006-T1
10            1 g10007-T1
# ℹ 31,207 more rows
# ℹ Use `print(n = ...)` to see more rows
…
Strongylocentrotus_purpuratus.data <-readr::read_tsv("data-raw/7668_gene_ages.tsv")
Strongylocentrotus_purpuratus.PhyloMap <-
  dplyr::select(
    Strongylocentrotus_purpuratus.data,
    Phylostratum = rank,
    GeneID = `#gene`
    )

The most important thing is that the [Species].PhyloMap
object has the first column with phylostratum titled
Phylostratum and the second column with the GeneID titled
GeneID.

> phylomapr::Strongylocentrotus_purpuratus.PhyloMap
# A tibble: 38,475 × 2
   Phylostratum GeneID        
          <dbl> <chr>         
 1            1 NP_001001474.1
 2            1 NP_001001475.1
 3            1 NP_001001476.1
 4            2 NP_001001477.1
 5            1 NP_001001478.1
 6            4 NP_001001768.2
 7            1 NP_001001906.1
 8            2 NP_001003798.1
 9            1 NP_001005725.1
10            1 NP_001008790.1
# ℹ 38,465 more rows
# ℹ Use `print(n = ...)` to see more rows
…
